[gd_scene load_steps=3 format=2]

[ext_resource path="res://Scripts/Score.gd" type="Script" id=1]
[ext_resource path="res://Assets/fonts/VT-outlined.tres" type="DynamicFont" id=2]

[node name="scoreCounter" type="MarginContainer"]
__meta__ = {
"_edit_use_anchors_": false
}

[node name="Score" type="Label" parent="."]
margin_top = 6.0
margin_right = 148.0
margin_bottom = 66.0
custom_fonts/font = ExtResource( 2 )
script = ExtResource( 1 )
