[gd_scene load_steps=5 format=2]

[ext_resource path="res://Assets/Visual/png_1x/teach.png" type="Texture" id=1]
[ext_resource path="res://Scripts/PowerUp.gd" type="Script" id=2]
[ext_resource path="res://Assets/Audio/ready to use/pickup-maybe.wav" type="AudioStream" id=3]

[sub_resource type="RectangleShape2D" id=1]
extents = Vector2( 9.0353, 11.962 )

[node name="Teacher" type="Sprite"]
texture = ExtResource( 1 )
script = ExtResource( 2 )

[node name="Powerup_Area" type="Area2D" parent="."]

[node name="CollisionShape2D" type="CollisionShape2D" parent="Powerup_Area"]
shape = SubResource( 1 )

[node name="AudioStreamPlayer2D" type="AudioStreamPlayer2D" parent="."]
stream = ExtResource( 3 )
[connection signal="body_entered" from="Powerup_Area" to="." method="_on_Powerup_Area_body_entered"]
