[gd_scene load_steps=3 format=2]

[ext_resource path="res://Scripts/TextureButton.gd" type="Script" id=1]
[ext_resource path="res://Assets/Audio/ready to use/button-select.wav" type="AudioStream" id=2]

[node name="TextureButton" type="TextureButton"]
margin_right = 40.0
margin_bottom = 40.0
script = ExtResource( 1 )
__meta__ = {
"_edit_use_anchors_": false
}

[node name="AudioStreamPlayer" type="AudioStreamPlayer" parent="."]
stream = ExtResource( 2 )
