[gd_resource type="DynamicFont" load_steps=2 format=2]

[ext_resource path="res://Assets/fonts/Raw/continuum bold.ttf" type="DynamicFontData" id=1]

[resource]
size = 150
font_data = ExtResource( 1 )
