{
	"format": "BeepBox",
	"version": 8,
	"scale": "easy :)",
	"key": "C",
	"introBars": 0,
	"loopBars": 1,
	"beatsPerBar": 8,
	"ticksPerBeat": 4,
	"beatsPerMinute": 150,
	"reverb": 0,
	"channels": [
		{
			"type": "pitch",
			"octaveScrollBar": 3,
			"instruments": [
				{
					"type": "chip",
					"volume": 100,
					"pan": 0,
					"effects": "none",
					"preset": 64,
					"transition": "seamless",
					"chord": "arpeggio",
					"filterCutoffHz": 4000,
					"filterResonance": 0,
					"filterEnvelope": "steady",
					"wave": "square",
					"interval": "union",
					"vibrato": "none"
				}
			],
			"patterns": [
				{
					"instrument": 1,
					"notes": [
						{
							"pitches": [
								40,
								38,
								36
							],
							"points": [
								{
									"tick": 0,
									"pitchBend": 0,
									"volume": 100
								},
								{
									"tick": 1,
									"pitchBend": 0,
									"volume": 100
								}
							]
						}
					]
				},
				{
					"instrument": 1,
					"notes": []
				},
				{
					"instrument": 1,
					"notes": []
				},
				{
					"instrument": 1,
					"notes": []
				},
				{
					"instrument": 1,
					"notes": []
				},
				{
					"instrument": 1,
					"notes": []
				},
				{
					"instrument": 1,
					"notes": []
				},
				{
					"instrument": 1,
					"notes": []
				}
			],
			"sequence": [
				1,
				0,
				0,
				0,
				0,
				0,
				0,
				0,
				0,
				0,
				0,
				0,
				0,
				0,
				0,
				0
			]
		},
		{
			"type": "pitch",
			"octaveScrollBar": 2,
			"instruments": [
				{
					"type": "FM",
					"volume": 80,
					"pan": 0,
					"effects": "reverb",
					"preset": 386,
					"transition": "hard fade",
					"chord": "strum",
					"filterCutoffHz": 8000,
					"filterResonance": 57,
					"filterEnvelope": "twang 2",
					"vibrato": "none",
					"algorithm": "1←(2 3 4)",
					"feedbackType": "1⟲",
					"feedbackAmplitude": 0,
					"feedbackEnvelope": "steady",
					"operators": [
						{
							"frequency": "1×",
							"amplitude": 15,
							"envelope": "custom"
						},
						{
							"frequency": "1×",
							"amplitude": 14,
							"envelope": "twang 3"
						},
						{
							"frequency": "9×",
							"amplitude": 3,
							"envelope": "twang 3"
						},
						{
							"frequency": "16×",
							"amplitude": 9,
							"envelope": "swell 3"
						}
					]
				}
			],
			"patterns": [
				{
					"instrument": 1,
					"notes": []
				},
				{
					"instrument": 1,
					"notes": []
				},
				{
					"instrument": 1,
					"notes": []
				},
				{
					"instrument": 1,
					"notes": []
				},
				{
					"instrument": 1,
					"notes": []
				},
				{
					"instrument": 1,
					"notes": []
				},
				{
					"instrument": 1,
					"notes": []
				},
				{
					"instrument": 1,
					"notes": []
				}
			],
			"sequence": [
				1,
				0,
				0,
				0,
				0,
				0,
				0,
				0,
				0,
				0,
				0,
				0,
				0,
				0,
				0,
				0
			]
		},
		{
			"type": "pitch",
			"octaveScrollBar": 1,
			"instruments": [
				{
					"type": "harmonics",
					"volume": 80,
					"pan": 0,
					"effects": "reverb",
					"preset": 320,
					"transition": "hard fade",
					"chord": "strum",
					"filterCutoffHz": 4000,
					"filterResonance": 14,
					"filterEnvelope": "twang 1",
					"interval": "union",
					"vibrato": "none",
					"harmonics": [
						100,
						86,
						71,
						71,
						71,
						71,
						57,
						57,
						57,
						57,
						43,
						43,
						43,
						43,
						43,
						29,
						29,
						29,
						29,
						29,
						29,
						14,
						14,
						14,
						14,
						14,
						14,
						14
					]
				}
			],
			"patterns": [
				{
					"instrument": 1,
					"notes": []
				},
				{
					"instrument": 1,
					"notes": []
				},
				{
					"instrument": 1,
					"notes": []
				},
				{
					"instrument": 1,
					"notes": []
				},
				{
					"instrument": 1,
					"notes": []
				},
				{
					"instrument": 1,
					"notes": []
				},
				{
					"instrument": 1,
					"notes": []
				},
				{
					"instrument": 1,
					"notes": []
				}
			],
			"sequence": [
				1,
				0,
				0,
				0,
				0,
				0,
				0,
				0,
				0,
				0,
				0,
				0,
				0,
				0,
				0,
				0
			]
		},
		{
			"type": "drum",
			"octaveScrollBar": 0,
			"instruments": [
				{
					"type": "drumset",
					"volume": 80,
					"pan": 0,
					"effects": "reverb",
					"preset": 960,
					"drums": [
						{
							"filterEnvelope": "twang 1",
							"spectrum": [
								57,
								71,
								71,
								86,
								86,
								86,
								71,
								71,
								71,
								71,
								57,
								57,
								57,
								57,
								43,
								43,
								43,
								43,
								29,
								29,
								29,
								29,
								29,
								29,
								29,
								29,
								29,
								29,
								29,
								29
							]
						},
						{
							"filterEnvelope": "twang 1",
							"spectrum": [
								0,
								0,
								0,
								100,
								71,
								71,
								57,
								86,
								57,
								57,
								57,
								71,
								43,
								43,
								57,
								43,
								43,
								43,
								43,
								43,
								43,
								43,
								43,
								43,
								43,
								43,
								43,
								43,
								43,
								43
							]
						},
						{
							"filterEnvelope": "twang 1",
							"spectrum": [
								0,
								0,
								0,
								0,
								100,
								57,
								43,
								43,
								29,
								57,
								43,
								29,
								71,
								43,
								43,
								43,
								43,
								57,
								43,
								43,
								43,
								43,
								43,
								43,
								43,
								43,
								29,
								43,
								43,
								43
							]
						},
						{
							"filterEnvelope": "twang 1",
							"spectrum": [
								0,
								0,
								0,
								0,
								0,
								71,
								57,
								43,
								43,
								43,
								57,
								57,
								43,
								29,
								57,
								43,
								43,
								43,
								29,
								43,
								57,
								43,
								43,
								43,
								43,
								43,
								43,
								29,
								43,
								43
							]
						},
						{
							"filterEnvelope": "decay 2",
							"spectrum": [
								0,
								14,
								29,
								43,
								86,
								71,
								29,
								43,
								43,
								43,
								43,
								29,
								71,
								29,
								71,
								29,
								43,
								43,
								43,
								43,
								57,
								43,
								43,
								57,
								43,
								43,
								43,
								57,
								57,
								57
							]
						},
						{
							"filterEnvelope": "decay 1",
							"spectrum": [
								0,
								0,
								14,
								14,
								14,
								14,
								29,
								29,
								29,
								43,
								43,
								43,
								57,
								57,
								57,
								71,
								71,
								71,
								71,
								71,
								71,
								71,
								71,
								57,
								57,
								57,
								57,
								43,
								43,
								43
							]
						},
						{
							"filterEnvelope": "twang 3",
							"spectrum": [
								43,
								43,
								43,
								71,
								29,
								29,
								43,
								43,
								43,
								29,
								43,
								43,
								43,
								29,
								29,
								43,
								43,
								29,
								29,
								29,
								57,
								14,
								57,
								43,
								43,
								57,
								43,
								43,
								57,
								57
							]
						},
						{
							"filterEnvelope": "decay 3",
							"spectrum": [
								29,
								43,
								43,
								43,
								43,
								29,
								29,
								43,
								29,
								29,
								43,
								29,
								14,
								29,
								43,
								29,
								43,
								29,
								57,
								29,
								43,
								57,
								43,
								71,
								43,
								71,
								57,
								57,
								71,
								71
							]
						},
						{
							"filterEnvelope": "twang 3",
							"spectrum": [
								43,
								29,
								29,
								43,
								29,
								29,
								29,
								57,
								29,
								29,
								29,
								57,
								43,
								43,
								29,
								29,
								57,
								43,
								43,
								43,
								71,
								43,
								43,
								71,
								57,
								71,
								71,
								71,
								71,
								71
							]
						},
						{
							"filterEnvelope": "decay 3",
							"spectrum": [
								57,
								57,
								57,
								43,
								57,
								57,
								43,
								43,
								57,
								43,
								43,
								43,
								71,
								57,
								43,
								57,
								86,
								71,
								57,
								86,
								71,
								57,
								86,
								100,
								71,
								86,
								86,
								86,
								86,
								86
							]
						},
						{
							"filterEnvelope": "flare 1",
							"spectrum": [
								0,
								0,
								14,
								14,
								14,
								14,
								29,
								29,
								29,
								43,
								43,
								43,
								57,
								57,
								71,
								71,
								86,
								86,
								100,
								100,
								100,
								100,
								100,
								100,
								100,
								100,
								86,
								57,
								29,
								0
							]
						},
						{
							"filterEnvelope": "decay 2",
							"spectrum": [
								14,
								14,
								14,
								14,
								29,
								14,
								14,
								29,
								14,
								43,
								14,
								43,
								57,
								86,
								57,
								57,
								100,
								57,
								43,
								43,
								57,
								100,
								57,
								43,
								29,
								14,
								0,
								0,
								0,
								0
							]
						}
					]
				}
			],
			"patterns": [
				{
					"instrument": 1,
					"notes": []
				},
				{
					"instrument": 1,
					"notes": []
				},
				{
					"instrument": 1,
					"notes": []
				},
				{
					"instrument": 1,
					"notes": []
				},
				{
					"instrument": 1,
					"notes": []
				},
				{
					"instrument": 1,
					"notes": []
				},
				{
					"instrument": 1,
					"notes": []
				},
				{
					"instrument": 1,
					"notes": []
				}
			],
			"sequence": [
				1,
				0,
				0,
				0,
				0,
				0,
				0,
				0,
				0,
				0,
				0,
				0,
				0,
				0,
				0,
				0
			]
		}
	]
}