{
	"format": "BeepBox",
	"version": 8,
	"scale": "easy :)",
	"key": "C",
	"introBars": 0,
	"loopBars": 1,
	"beatsPerBar": 8,
	"ticksPerBeat": 4,
	"beatsPerMinute": 150,
	"reverb": 0,
	"channels": [
		{
			"type": "pitch",
			"octaveScrollBar": 3,
			"instruments": [
				{
					"type": "FM",
					"volume": 100,
					"pan": 0,
					"effects": "reverb",
					"preset": 576,
					"transition": "cross fade",
					"chord": "harmony",
					"filterCutoffHz": 2828,
					"filterResonance": 43,
					"filterEnvelope": "steady",
					"vibrato": "delayed",
					"algorithm": "(1 2)←(3 4)",
					"feedbackType": "4⟲",
					"feedbackAmplitude": 5,
					"feedbackEnvelope": "twang 3",
					"operators": [
						{
							"frequency": "4×",
							"amplitude": 9,
							"envelope": "custom"
						},
						{
							"frequency": "3×",
							"amplitude": 9,
							"envelope": "custom"
						},
						{
							"frequency": "2×",
							"amplitude": 7,
							"envelope": "steady"
						},
						{
							"frequency": "7×",
							"amplitude": 5,
							"envelope": "swell 1"
						}
					]
				}
			],
			"patterns": [
				{
					"instrument": 1,
					"notes": [
						{
							"pitches": [
								72
							],
							"points": [
								{
									"tick": 0,
									"pitchBend": 0,
									"volume": 100
								},
								{
									"tick": 14,
									"pitchBend": 0,
									"volume": 100
								}
							]
						}
					]
				},
				{
					"instrument": 1,
					"notes": []
				},
				{
					"instrument": 1,
					"notes": []
				},
				{
					"instrument": 1,
					"notes": []
				},
				{
					"instrument": 1,
					"notes": []
				},
				{
					"instrument": 1,
					"notes": []
				},
				{
					"instrument": 1,
					"notes": []
				},
				{
					"instrument": 1,
					"notes": []
				}
			],
			"sequence": [
				1,
				0,
				0,
				0,
				0,
				0,
				0,
				0,
				0,
				0,
				0,
				0,
				0
			]
		},
		{
			"type": "pitch",
			"octaveScrollBar": 2,
			"instruments": [
				{
					"type": "FM",
					"volume": 80,
					"pan": 0,
					"effects": "reverb",
					"preset": 201,
					"transition": "hard fade",
					"chord": "strum",
					"filterCutoffHz": 2000,
					"filterResonance": 29,
					"filterEnvelope": "twang 3",
					"vibrato": "none",
					"algorithm": "1←(2 3 4)",
					"feedbackType": "1⟲",
					"feedbackAmplitude": 0,
					"feedbackEnvelope": "steady",
					"operators": [
						{
							"frequency": "~2×",
							"amplitude": 10,
							"envelope": "custom"
						},
						{
							"frequency": "7×",
							"amplitude": 6,
							"envelope": "twang 3"
						},
						{
							"frequency": "20×",
							"amplitude": 1,
							"envelope": "twang 1"
						},
						{
							"frequency": "1×",
							"amplitude": 0,
							"envelope": "steady"
						}
					]
				}
			],
			"patterns": [
				{
					"instrument": 1,
					"notes": []
				},
				{
					"instrument": 1,
					"notes": []
				},
				{
					"instrument": 1,
					"notes": []
				},
				{
					"instrument": 1,
					"notes": []
				},
				{
					"instrument": 1,
					"notes": []
				},
				{
					"instrument": 1,
					"notes": []
				},
				{
					"instrument": 1,
					"notes": []
				},
				{
					"instrument": 1,
					"notes": []
				}
			],
			"sequence": [
				1,
				0,
				0,
				0,
				0,
				0,
				0,
				0,
				0,
				0,
				0,
				0,
				0
			]
		},
		{
			"type": "pitch",
			"octaveScrollBar": 1,
			"instruments": [
				{
					"type": "harmonics",
					"volume": 80,
					"pan": 0,
					"effects": "reverb",
					"preset": 132,
					"transition": "hard",
					"chord": "harmony",
					"filterCutoffHz": 2828,
					"filterResonance": 14,
					"filterEnvelope": "twang 2",
					"interval": "union",
					"vibrato": "none",
					"harmonics": [
						86,
						100,
						100,
						71,
						71,
						57,
						57,
						43,
						43,
						43,
						29,
						29,
						29,
						14,
						14,
						14,
						0,
						0,
						0,
						0,
						0,
						57,
						0,
						0,
						0,
						0,
						0,
						0
					]
				}
			],
			"patterns": [
				{
					"instrument": 1,
					"notes": []
				},
				{
					"instrument": 1,
					"notes": []
				},
				{
					"instrument": 1,
					"notes": []
				},
				{
					"instrument": 1,
					"notes": []
				},
				{
					"instrument": 1,
					"notes": []
				},
				{
					"instrument": 1,
					"notes": []
				},
				{
					"instrument": 1,
					"notes": []
				},
				{
					"instrument": 1,
					"notes": []
				}
			],
			"sequence": [
				1,
				0,
				0,
				0,
				0,
				0,
				0,
				0,
				0,
				0,
				0,
				0,
				0
			]
		},
		{
			"type": "drum",
			"octaveScrollBar": 0,
			"instruments": [
				{
					"type": "noise",
					"volume": 80,
					"pan": 0,
					"effects": "none",
					"preset": 69,
					"transition": "hard",
					"chord": "arpeggio",
					"filterCutoffHz": 4000,
					"filterResonance": 0,
					"filterEnvelope": "steady",
					"wave": "retro"
				}
			],
			"patterns": [
				{
					"instrument": 1,
					"notes": []
				},
				{
					"instrument": 1,
					"notes": []
				},
				{
					"instrument": 1,
					"notes": []
				},
				{
					"instrument": 1,
					"notes": []
				},
				{
					"instrument": 1,
					"notes": []
				},
				{
					"instrument": 1,
					"notes": []
				},
				{
					"instrument": 1,
					"notes": []
				},
				{
					"instrument": 1,
					"notes": []
				}
			],
			"sequence": [
				1,
				0,
				0,
				0,
				0,
				0,
				0,
				0,
				0,
				0,
				0,
				0,
				0
			]
		}
	]
}